\relax 
\providecommand\hyper@newdestlabel[2]{}
\providecommand\HyperFirstAtBeginDocument{\AtBeginDocument}
\HyperFirstAtBeginDocument{\ifx\hyper@anchor\@undefined
\global\let\oldcontentsline\contentsline
\gdef\contentsline#1#2#3#4{\oldcontentsline{#1}{#2}{#3}}
\global\let\oldnewlabel\newlabel
\gdef\newlabel#1#2{\newlabelxx{#1}#2}
\gdef\newlabelxx#1#2#3#4#5#6{\oldnewlabel{#1}{{#2}{#3}}}
\AtEndDocument{\ifx\hyper@anchor\@undefined
\let\contentsline\oldcontentsline
\let\newlabel\oldnewlabel
\fi}
\fi}
\global\let\hyper@last\relax 
\gdef\HyperFirstAtBeginDocument#1{#1}
\providecommand\HyField@AuxAddToFields[1]{}
\providecommand\HyField@AuxAddToCoFields[2]{}
\babel@aux{croatian}{}
\@writefile{toc}{\contentsline {chapter}{\numberline {1}Uvod}{1}{chapter.1}}
\@writefile{lof}{\addvspace {10\p@ }}
\@writefile{lot}{\addvspace {10\p@ }}
\@writefile{toc}{\contentsline {chapter}{\numberline {2}Povijesni pregled podr\IeC {\v z}anog u\IeC {\v c}enja}{2}{chapter.2}}
\@writefile{lof}{\addvspace {10\p@ }}
\@writefile{lot}{\addvspace {10\p@ }}
\@writefile{toc}{\contentsline {section}{\numberline {2.1}op\IeC {\'c}enito}{2}{section.2.1}}
\@writefile{toc}{\contentsline {section}{\numberline {2.2}Dinami\IeC {\v c}ko programiranje}{2}{section.2.2}}
\@writefile{lof}{\contentsline {figure}{\numberline {2.1}{\ignorespaces Pronala\IeC {\v z}enje najkra\IeC {\'c}eg puta u grafu dinami\IeC {\v c}kim programiranjem\relax }}{3}{figure.caption.2}}
\@writefile{toc}{\contentsline {section}{\numberline {2.3}Teorija optimalnog upravljanja}{3}{section.2.3}}
\@writefile{toc}{\contentsline {section}{\numberline {2.4}Markovljevi procesi odu\IeC {\v c}ivanja}{3}{section.2.4}}
\@writefile{lof}{\contentsline {figure}{\numberline {2.2}{\ignorespaces Markovljev proces odlu\IeC {\v c}ivanja\relax }}{4}{figure.caption.3}}
\@writefile{toc}{\contentsline {section}{\numberline {2.5}Metode poku\IeC {\v s}aja i pogre\IeC {\v s}ke}{4}{section.2.5}}
\@writefile{lof}{\contentsline {figure}{\numberline {2.3}{\ignorespaces Markovljev proces odlu\IeC {\v c}ivanja\relax }}{5}{figure.caption.4}}
\@writefile{toc}{\contentsline {chapter}{\numberline {3}Formulacija i elementi podr\IeC {\v z}anog u\IeC {\v c}enja}{6}{chapter.3}}
\@writefile{lof}{\addvspace {10\p@ }}
\@writefile{lot}{\addvspace {10\p@ }}
\@writefile{toc}{\contentsline {section}{\numberline {3.1}Politika}{6}{section.3.1}}
\@writefile{toc}{\contentsline {section}{\numberline {3.2}Nagrada}{6}{section.3.2}}
\@writefile{toc}{\contentsline {section}{\numberline {3.3}Funkcija vrijednosti}{7}{section.3.3}}
\@writefile{toc}{\contentsline {section}{\numberline {3.4}Model okoline}{8}{section.3.4}}
\@writefile{lof}{\contentsline {figure}{\numberline {3.1}{\ignorespaces U\IeC {\v c}enje pomo\IeC {\'c}u modela i u\IeC {\v c}enje bez modela\relax }}{8}{figure.caption.5}}
\@writefile{toc}{\contentsline {chapter}{\numberline {4}Q-u\IeC {\v c}enje: konkretni primjer podr\IeC {\v z}anog u\IeC {\v c}enja}{9}{chapter.4}}
\@writefile{lof}{\addvspace {10\p@ }}
\@writefile{lot}{\addvspace {10\p@ }}
\@writefile{toc}{\contentsline {section}{\numberline {4.1}Formalne definicije}{9}{section.4.1}}
\@writefile{toc}{\contentsline {subsection}{\numberline {4.1.1}Proces odlu\IeC {\v c}ivanja}{9}{subsection.4.1.1}}
\@writefile{lof}{\contentsline {figure}{\numberline {4.1}{\ignorespaces Definicija Markovljevog modela odlu\IeC {\v c}ivanja\relax }}{9}{figure.caption.6}}
\@writefile{toc}{\contentsline {subsection}{\numberline {4.1.2}Q-u\IeC {\v c}enje}{10}{subsection.4.1.2}}
\@writefile{lof}{\contentsline {figure}{\numberline {4.2}{\ignorespaces Kratki opis procesa Q-u\IeC {\v c}enja\relax }}{11}{figure.caption.7}}
\@writefile{toc}{\contentsline {section}{\numberline {4.2}Primjena Q-u\IeC {\v c}enja}{12}{section.4.2}}
\@writefile{lof}{\contentsline {figure}{\numberline {4.3}{\ignorespaces Problem 4 dizala u zgradi s 10 katova\relax }}{12}{figure.caption.8}}
\@writefile{lof}{\contentsline {figure}{\numberline {4.4}{\ignorespaces Rezultati na procesoru od 100 mips-a\relax }}{13}{figure.caption.9}}
\citation{*}
\@writefile{toc}{\contentsline {chapter}{\numberline {5}Zaklju\IeC {\v c}ak}{14}{chapter.5}}
\@writefile{lof}{\addvspace {10\p@ }}
\@writefile{lot}{\addvspace {10\p@ }}
\@writefile{lof}{\contentsline {figure}{\numberline {5.1}{\ignorespaces \textit  {Super Mario Bros}, popularna igra za implementiranje sustava za podr\IeC {\v z}ano u\IeC {\v c}enje\relax }}{14}{figure.caption.10}}
\@writefile{toc}{\contentsline {chapter}{\numberline {6}Literatura}{15}{chapter.6}}
\@writefile{lof}{\addvspace {10\p@ }}
\@writefile{lot}{\addvspace {10\p@ }}
\@writefile{toc}{\contentsline {chapter}{\numberline {7}Sa\IeC {\v z}etak}{16}{chapter.7}}
\@writefile{lof}{\addvspace {10\p@ }}
\@writefile{lot}{\addvspace {10\p@ }}
